^D:\LESSON_16\LESSON_16\LESSON_16\LESSON_16.CPP
D:\LESSON_16\LESSON_16\LESSON_16\DEBUG\VC142.PDB
D:\LESSON_16\LESSON_16\LESSON_16\DEBUG\VC142.IDB
D:\LESSON_16\LESSON_16\LESSON_16\DEBUG\LESSON_16.OBJ
